<svg width="15" height="15" viewBox="0 0 15 15" fill="none" xmlns="http://www.w3.org/2000/svg">
<circle cx="7.5" cy="7.5" r="7.5" fill="#00CC9C"/>
<path d="M4 6.90476L7.04762 9.95238L12 5" stroke="white" stroke-linecap="round"/>
</svg>
