<svg width="25" height="15" viewBox="0 0 25 15" fill="none" xmlns="http://www.w3.org/2000/svg">
<path d="M2.5 13.5L9.5 6.5L14 11L23 2" stroke="#2A6DE4"/>
<circle cx="2" cy="13" r="2" fill="#2A6DE4"/>
<circle cx="9" cy="7" r="2" fill="#2A6DE4"/>
<circle cx="14" cy="11" r="2" fill="#2A6DE4"/>
<circle cx="23" cy="2" r="2" fill="#2A6DE4"/>
</svg>
