<svg width="15" height="15" viewBox="0 0 15 15" fill="none" xmlns="http://www.w3.org/2000/svg">
<rect x="4" y="3" width="6" height="10" fill="white"/>
<path d="M7.5 0C3.36452 0 0 3.36452 0 7.5C0 11.6352 3.36452 15 7.5 15C11.6352 15 15 11.6352 15 7.5C15 3.36452 11.6358 0 7.5 0ZM6.5236 12.2433L7.39728 8.52685H4.85902L6.73689 3.71254L6.87072 3.36029H9.26216L9.10688 3.71435L7.79576 6.8535H10.1407L6.5236 12.2433Z" fill="#FBC955"/>
</svg>
