<svg width="11" height="11" viewBox="0 0 11 11" fill="none" xmlns="http://www.w3.org/2000/svg">
<g clip-path="url(#clip0)">
<path d="M3.37878 3.37866L7.62142 7.6213" stroke="#5B6375" stroke-linecap="round"/>
<path d="M3.37878 7.62134L7.62142 3.3787" stroke="#5B6375" stroke-linecap="round"/>
</g>
<defs>
<clipPath id="clip0">
<rect width="7.5" height="7.5" fill="white" transform="translate(0.196777 5.5) rotate(-45)"/>
</clipPath>
</defs>
</svg>
