<svg width="15" height="15" viewBox="0 0 15 15" fill="none" xmlns="http://www.w3.org/2000/svg">
    <circle cx="7.5" cy="7.5" r="7.5" fill="#2A6DE4"/>
    <path d="M7.3489 4.08721L5.33051 7.60727C4.90636 8.35146 4.8736 9.29772 5.33051 10.0946C6.01735 11.2924 7.5452 11.7067 8.74305 11.0198C9.94091 10.333 10.3552 8.80513 9.66832 7.60726L7.64993 4.08721C7.58326 3.97093 7.41556 3.97093 7.3489 4.08721Z" fill="white"/>
</svg>
